{
  "ciudadanos": [
    {
      "id": "145160",
      "nif": "10026291Q",
      "nombre": "ABELLA MAURIZ JESUS",
      "sexo": "H",
      "tipoVia": "CL",
      "nombreVia": "AV GALICIA 332 BJ",
      "numeroVia": "S/N",
      "municipio": "24115",
      "codigoPostal": "24411",
      "fechaNacimiento": "3/29/41"
    },
    {
      "id": "145050",
      "nif": "10022056J",
      "nombre": "LOPEZ MARTIN MARIA CARMEN",
      "sexo": "M",
      "tipoVia": "CL",
      "nombreVia": "NO CONSTA",
      "numeroVia": "S/N",
      "municipio": "24057",
      "codigoPostal": "24398",
      "fechaNacimiento": "5/24/41"
    },
    {
      "id": "145051",
      "nif": "10022092A",
      "nombre": "ALVAREZ YAÑEZ MANUEL",
      "sexo": "H",
      "tipoVia": "CL",
      "nombreVia": "PZ SAN NICOLAS 5222",
      "numeroVia": "S/N",
      "municipio": "24070",
      "codigoPostal": "24420",
      "fechaNacimiento": "11/13/46",
      "telefono": "983112233"
    },
    {
      "id": "145052",
      "nif": "10022099X",
      "nombre": "FERNANDEZ OTERO JOSE LUIS",
      "sexo": "H",
      "tipoVia": "LG",
      "nombreVia": "VIA MIRAVALLES 8",
      "numeroVia": "S/N",
      "municipio": "24064",
      "codigoPostal": "24400",
      "fechaNacimiento": "12/18/47"
    },
    {
      "id": "145053",
      "nif": "10022100B",
      "nombre": "VARO LOPEZ JOAQUIN",
      "sexo": "H",
      "tipoVia": "CL",
      "nombreVia": "RONDA RIO S/N",
      "numeroVia": "S/N",
      "municipio": "28079",
      "codigoPostal": "11160",
      "fechaNacimiento": "10/19/53"
    },
    {
      "id": "145054",
      "nif": "10022118Y",
      "nombre": "ESCUREDO LORENZO PEDRO",
      "sexo": "H",
      "tipoVia": "CL",
      "nombreVia": "SITIO DE NUMANCIA",
      "numeroVia": "0026",
      "municipio": "24115",
      "codigoPostal": "24400",
      "fechaNacimiento": "8/27/59"
    },
    {
      "id": "145055",
      "nif": "10022226E",
      "nombre": "FERNANDEZ SAN JUAN PEDRO",
      "sexo": "H",
      "tipoVia": "CL",
      "nombreVia": "CL LA CEMBA, 7ª TRAVESIA 2 4",
      "numeroVia": "S/N",
      "municipio": "24115",
      "codigoPostal": "24400",
      "fechaNacimiento": "1/2/62"
    },
    {
      "id": "145056",
      "nif": "10022296T",
      "nombre": "FERNANDEZ CASTAÑEIRAS JESUS",
      "fechaNacimiento": "1972-06-12T23:00:00.000Z",
      "sexo": "H",
      "pais": "",
      "direccion": {
        "tipoVia": "CL",
        "nombreVia": "CL SALINAS 12 3",
        "numeroVia": "S/N",
        "bisDup": "",
        "escalera": "",
        "piso": "2º",
        "letraNumeroPuerta": "2ª",
        "provincia": "LEON",
        "municipio": "24209",
        "codigoPostal": "24500",
        "localidad": "El Bierzo"
      },
      "telefono": "943123456",
      "email": "",
      "idiomaComunicacion": "option1"
    },
    {
      "id": "145057",
      "nif": "10022300G",
      "nombre": "MATEO GARCIA ANTONIO",
      "sexo": "H",
      "tipoVia": "CL",
      "nombreVia": "POL. AVDA DE AFRICA 3",
      "numeroVia": "S/N",
      "municipio": "51001",
      "codigoPostal": "51002",
      "fechaNacimiento": "9/18/67"
    },
    {
      "id": "145058",
      "nif": "10022477C",
      "nombre": "LOZANO FERRERAS ANDRES",
      "sexo": "H",
      "tipoVia": "PO",
      "nombreVia": "SAN ANTONIO",
      "numeroVia": "0005",
      "municipio": "24115",
      "codigoPostal": "24400",
      "fechaNacimiento": "6/29/68"
    },
    {
      "id": "145059",
      "nif": "10022540Z",
      "nombre": "MERAYO BELLO FRANCISCA",
      "sexo": "M",
      "tipoVia": "CL",
      "nombreVia": "AV DEL CASTILLO 4 4º D",
      "numeroVia": "S/N",
      "municipio": "24115",
      "codigoPostal": "24400",
      "fechaNacimiento": "5/26/69"
    },
    {
      "id": "145060",
      "nif": "10022554M",
      "nombre": "ARROYO CARBALLO JOSE ANTONIO",
      "sexo": "H",
      "tipoVia": "CL",
      "nombreVia": "AV VALDES 24",
      "numeroVia": "S/N",
      "municipio": "24115",
      "codigoPostal": "24400",
      "fechaNacimiento": "6/19/71",
      "piso": "B"
    },
    {
      "id": "145061",
      "nif": "10022564S",
      "nombre": "JIMENEZ PUENTE JOSE MANUEL",
      "sexo": "H",
      "tipoVia": "CL",
      "nombreVia": "CL LUCIANA FERNANDEZ S/N",
      "numeroVia": "S/N",
      "municipio": "24115",
      "codigoPostal": "24400",
      "fechaNacimiento": "1/21/73",
      "email": "recatran@gmail.com"
    },
    {
      "id": "145062",
      "nif": "10022574W",
      "nombre": "MONTES FERNANDEZ RAMIRO",
      "sexo": "H",
      "tipoVia": "LG",
      "nombreVia": "SANTO TOMAS DE LAS OLLAS",
      "numeroVia": "S/N",
      "municipio": "24115",
      "codigoPostal": "24416",
      "fechaNacimiento": "1/24/73"
    },
    {
      "id": "145063",
      "nif": "10022684C",
      "nombre": "GARCIA RODRIGUEZ ANGELA",
      "sexo": "M",
      "tipoVia": "CL",
      "nombreVia": "CL LINARES 37",
      "numeroVia": "S/N",
      "municipio": "24169",
      "codigoPostal": "24450",
      "fechaNacimiento": "3/4/74"
    },
    {
      "id": "145064",
      "nif": "10022771S",
      "nombre": "LAGUNA PLIEGO MANUEL",
      "sexo": "H",
      "tipoVia": "CL",
      "nombreVia": "CL SAN VALERIO 31 4 B",
      "numeroVia": "S/N",
      "municipio": "24115",
      "codigoPostal": "24400",
      "fechaNacimiento": "11/17/82",
      "piso": "4"
    },
    {
      "id": "145065",
      "nif": "10022845C",
      "nombre": "MORAN SIERRA JUAN",
      "sexo": "H",
      "tipoVia": "CL",
      "nombreVia": "CL LA LECHERIA, S/N",
      "numeroVia": "S/N",
      "municipio": "24115",
      "codigoPostal": "24390",
      "fechaNacimiento": "3/12/83"
    },
    {
      "id": "145066",
      "nif": "10022846K",
      "nombre": "NUÐEZ ALVAREZ ALFREDO",
      "sexo": "H",
      "tipoVia": "CL",
      "nombreVia": "CL PLAZA DEL SIL 9",
      "numeroVia": "S/N",
      "municipio": "24169",
      "codigoPostal": "24460",
      "fechaNacimiento": "6/27/83"
    },
    {
      "id": "145067",
      "nif": "10022943A",
      "nombre": "RODRIGUEZ RODRIGUEZ MARIA ARGENTINA",
      "sexo": "M",
      "tipoVia": "CL",
      "nombreVia": "CL REAL 37 1",
      "numeroVia": "S/N",
      "municipio": "24115",
      "codigoPostal": "24400",
      "fechaNacimiento": "5/2/84",
      "piso": "1º"
    },
    {
      "id": "145068",
      "nif": "10022991M",
      "nombre": "GONZALEZ MARTINEZ ARTURO",
      "sexo": "H",
      "tipoVia": "CL",
      "nombreVia": "CT LA ESPINA   KM. 8 S/N",
      "numeroVia": "S/N",
      "municipio": "24064",
      "codigoPostal": "24492",
      "fechaNacimiento": "12/19/86"
    },
    {
      "id": "145069",
      "nif": "10023016F",
      "nombre": "FERNANDEZ FERNANDEZ LEOPOLDO",
      "sexo": "H",
      "tipoVia": "CL",
      "nombreVia": "LA LAGUNA",
      "numeroVia": "0028",
      "municipio": "24115",
      "codigoPostal": "24491",
      "fechaNacimiento": "9/1/87"
    },
    {
      "id": "145070",
      "nif": "10023065X",
      "nombre": "FERNANDEZ BARBA VICTORIA",
      "sexo": "M",
      "tipoVia": "CL",
      "nombreVia": "CL LERIDA -LA PLACA - 11 2",
      "numeroVia": "0002",
      "municipio": "24115",
      "codigoPostal": "24400",
      "fechaNacimiento": "7/30/89",
      "piso": "BJ"
    },
    {
      "id": "145071",
      "nif": "10023092Z",
      "nombre": "GONZALEZ CASADO MARIA CONCEPCIO",
      "sexo": "M",
      "tipoVia": "CL",
      "nombreVia": "CL DOCTOR FLEMING 5",
      "numeroVia": "S/N",
      "municipio": "24014",
      "codigoPostal": "24300",
      "fechaNacimiento": "3/14/91"
    },
    {
      "id": "145072",
      "nif": "10023101T",
      "nombre": "ACEBEDO CACHAFEIRO ANTONIO",
      "sexo": "H",
      "tipoVia": "CL",
      "nombreVia": "AV VILLAFRANCA 34 3 A",
      "numeroVia": "S/N",
      "municipio": "24014",
      "codigoPostal": "24300",
      "fechaNacimiento": "3/1/96"
    },
    {
      "id": "145073",
      "nif": "10023110D",
      "nombre": "GARCIA GARCIA JOSE MARIA",
      "sexo": "M",
      "tipoVia": "CL",
      "nombreVia": "CL GUSTAVO ADOLFO BECQUER 3 BJ",
      "numeroVia": "S/N",
      "municipio": "24115",
      "codigoPostal": "24400",
      "fechaNacimiento": "6/9/99",
      "telefono": "637895462"
    },
    {
      "id": "145074",
      "nif": "10023117Q",
      "nombre": "PEREZ SANCHEZ EDUARDO",
      "sexo": "H",
      "tipoVia": "CL",
      "nombreVia": "PLAZA DEL AYUNTAMIENTO 8",
      "numeroVia": "S/N",
      "municipio": "24115",
      "codigoPostal": "24000",
      "fechaNacimiento": "12/26/35"
    },
    {
      "id": "145075",
      "nif": "10023135B",
      "nombre": "CALLEJA REGUERA FLORA",
      "sexo": "M",
      "tipoVia": "CL",
      "nombreVia": "CL LOS FRAILES 3",
      "numeroVia": "S/N",
      "municipio": "24115",
      "codigoPostal": "24400",
      "fechaNacimiento": "5/24/41",
      "email": "pichurri@hotmail.com"
    },
    {
      "id": "145076",
      "nif": "10023174G",
      "nombre": "GANCEDO GARCIA ALFREDO",
      "sexo": "H",
      "tipoVia": "CL",
      "nombreVia": "CL NICOLAS DE BRUJAS 27",
      "numeroVia": "S/N",
      "municipio": "24115",
      "codigoPostal": "24400",
      "fechaNacimiento": "10/14/42"
    },
    {
      "id": "145077",
      "nif": "10023199Y",
      "nombre": "MARTINEZ GONZALEZ JOSE LUIS",
      "sexo": "H",
      "tipoVia": "BO",
      "nombreVia": "PUENTE NUEVO",
      "numeroVia": "S/N",
      "municipio": "24014",
      "codigoPostal": "24300",
      "fechaNacimiento": "8/9/46"
    },
    {
      "id": "145078",
      "nif": "10023219A",
      "nombre": "RODRIGUEZ TEIRAN MATEO",
      "sexo": "H",
      "tipoVia": "CL",
      "nombreVia": "AV DE PORTUGAL 130",
      "numeroVia": "S/N",
      "municipio": "24115",
      "codigoPostal": "24400",
      "fechaNacimiento": "7/20/47"
    },
    {
      "id": "145079",
      "nif": "10023221M",
      "nombre": "GUALDA RODRIGUEZ MANUEL",
      "sexo": "H",
      "tipoVia": "CL",
      "nombreVia": "AV AVENIDA DE MADRID 70",
      "numeroVia": "S/N",
      "municipio": "47186",
      "codigoPostal": "47008",
      "fechaNacimiento": "8/16/53",
      "email": "manrodgua@jcyl.es"
    },
    {
      "id": "145080",
      "nif": "10023328C",
      "nombre": "GONZALEZ VALCARCE GABRIEL",
      "sexo": "H",
      "tipoVia": "CL",
      "nombreVia": "CL BATALLA DE BAILEN 6",
      "numeroVia": "S/N",
      "municipio": "24115",
      "codigoPostal": "24400",
      "fechaNacimiento": "6/30/55"
    },
    {
      "id": "145081",
      "nif": "10023356W",
      "nombre": "GONZALEZ LUNA FRANCISCO",
      "sexo": "H",
      "tipoVia": "CL",
      "nombreVia": "CL SANTIAGO 114",
      "numeroVia": "S/N",
      "municipio": "24038",
      "codigoPostal": "24565",
      "fechaNacimiento": "7/24/55",
      "telefono": "985123456"
    },
    {
      "id": "145082",
      "nif": "10023400T",
      "nombre": "GIRON GONZALEZ EUGENIA",
      "sexo": "M",
      "tipoVia": "CL",
      "nombreVia": "RIEGO DE AMBROS",
      "numeroVia": "0028",
      "municipio": "24115",
      "codigoPostal": "24400",
      "fechaNacimiento": "4/27/56"
    },
    {
      "id": "145083",
      "nif": "10023407F",
      "nombre": "ANGELES CABALLERO LANCHA",
      "sexo": "O",
      "tipoVia": "CL",
      "nombreVia": "MENENDEZ PIDAL",
      "numeroVia": "0020",
      "municipio": "24014",
      "codigoPostal": "24300",
      "fechaNacimiento": "8/16/62"
    },
    {
      "id": "145084",
      "nif": "10023443C",
      "nombre": "FERNANDEZ ALBA ALSIRA",
      "sexo": "M",
      "tipoVia": "CL",
      "nombreVia": "CL BATALLA DE CERIÑOLA 8",
      "numeroVia": "S/N",
      "municipio": "24115",
      "codigoPostal": "24400",
      "fechaNacimiento": "11/28/62"
    },
    {
      "id": "145085",
      "nif": "10023445E",
      "nombre": "LUNA FERNANDEZ FLORENCIO",
      "sexo": "H",
      "tipoVia": "AV",
      "nombreVia": "DE ESPAñA",
      "numeroVia": "0011",
      "municipio": "24115",
      "codigoPostal": "24400",
      "fechaNacimiento": "12/1/63",
      "piso": "1û",
      "letraNumeroPuerta": "C"
    },
    {
      "id": "145086",
      "nif": "10023502X",
      "nombre": "VEGA SARMIENTO JOSE LUIS",
      "sexo": "H",
      "tipoVia": "CL",
      "nombreVia": "PZ DEL PARQUE 4 1",
      "numeroVia": "S/N",
      "municipio": "24030",
      "codigoPostal": "24540",
      "fechaNacimiento": "8/23/64",
      "piso": "1º",
      "letraNumeroPuerta": "A"
    },
    {
      "id": "145087",
      "nif": "10023504N",
      "nombre": "GONZALEZ FERNANDEZ MARIA AURORA",
      "sexo": "M",
      "tipoVia": "CL",
      "nombreVia": "AVDA.F.ANAYA 98-104 P.5",
      "numeroVia": "S/N",
      "municipio": "37274",
      "codigoPostal": "28080",
      "fechaNacimiento": "10/23/67"
    },
    {
      "id": "145088",
      "nif": "10023554Q",
      "nombre": "FRANCISCO RODRIGUEZ MERAYO",
      "sexo": "O",
      "tipoVia": "CL",
      "nombreVia": "NO CONSTA",
      "numeroVia": "S/N",
      "municipio": "24089",
      "codigoPostal": "24010",
      "fechaNacimiento": "9/2/69",
      "piso": "8",
      "letraNumeroPuerta": "E"
    },
    {
      "id": "145089",
      "nif": "10023603L",
      "nombre": "MARTINEZ DIAZ FIDEL",
      "sexo": "H",
      "tipoVia": "CL",
      "nombreVia": "CL GRAL SALGADO 33",
      "numeroVia": "S/N",
      "municipio": "27032",
      "codigoPostal": "27560",
      "fechaNacimiento": "3/18/70"
    },
    {
      "id": "145090",
      "nif": "10023685D",
      "nombre": "LOPEZ RODRIGUEZ MIGUEL",
      "sexo": "H",
      "tipoVia": "CL",
      "nombreVia": "PG INDUSTRIAL BIERZO ALTO PARCS2NAVB17 S/N",
      "numeroVia": "0029",
      "municipio": "24115",
      "codigoPostal": "24318",
      "fechaNacimiento": "7/6/72"
    },
    {
      "id": "145091",
      "nif": "10023768T",
      "nombre": "PEREZ ARIAS MARIA LUISA",
      "sexo": "M",
      "tipoVia": "AV",
      "nombreVia": "CL LA SORDA 1",
      "numeroVia": "0018",
      "municipio": "24196",
      "codigoPostal": "24430",
      "fechaNacimiento": "7/29/78"
    },
    {
      "id": "145092",
      "nif": "10023784Q",
      "nombre": "SUAREZ RODRIGUEZ JULIO",
      "sexo": "H",
      "tipoVia": "CL",
      "nombreVia": "CL SIN SEñAS S/N",
      "numeroVia": "S/N",
      "municipio": "24170",
      "codigoPostal": "24370",
      "fechaNacimiento": "2/2/81"
    },
    {
      "id": "145093",
      "nif": "10023786H",
      "nombre": "VEGA PEREZ EMILIA ISABEL",
      "sexo": "M",
      "tipoVia": "CL",
      "nombreVia": "CT CALAMOCOS, S/N",
      "numeroVia": "S/N",
      "municipio": "24057",
      "codigoPostal": "24398",
      "fechaNacimiento": "10/31/86"
    },
    {
      "id": "145094",
      "nif": "10023820Y",
      "nombre": "FERNANDEZ ALVAREZ JUAN MANUEL",
      "sexo": "H",
      "tipoVia": "CL",
      "nombreVia": "AV MOLINASECA 20",
      "numeroVia": "S/N",
      "municipio": "24115",
      "codigoPostal": "24400",
      "fechaNacimiento": "11/11/91"
    },
    {
      "id": "145095",
      "nif": "10023870X",
      "nombre": "LIZ GONZALEZ NESTOR MANUEL",
      "sexo": "H",
      "tipoVia": "CL",
      "nombreVia": "AV QUEVEDO 29",
      "numeroVia": "S/N",
      "municipio": "24089",
      "codigoPostal": "24009",
      "fechaNacimiento": "2/23/92"
    },
    {
      "id": "145096",
      "nif": "10023878H",
      "nombre": "ALONSO GONZALEZ JESUS",
      "sexo": "H",
      "tipoVia": "CL",
      "nombreVia": "TRAVESIA SAN VALERIO",
      "numeroVia": "S/N",
      "municipio": "24115",
      "codigoPostal": "24400",
      "fechaNacimiento": "9/5/92"
    },
    {
      "id": "145097",
      "nif": "10023887G",
      "nombre": "PEREZ MONTERO ENRIQUE",
      "sexo": "H",
      "tipoVia": "CL",
      "nombreVia": "CL PZA CRUZ VERDE 6 S/N",
      "numeroVia": "S/N",
      "municipio": "47186",
      "codigoPostal": "47002",
      "fechaNacimiento": "12/7/92"
    },
    {
      "id": "145098",
      "nombre": "VIDAL PEREIRA LUIS",
      "fechaNacimiento": "1968-12-23T23:00:00.000Z",
      "sexo": "H",
      "pais": "",
      "direccion": {
        "tipoVia": "CL",
        "nombreVia": "SORIA",
        "numeroVia": "0024",
        "bisDup": "",
        "escalera": "",
        "piso": "",
        "letraNumeroPuerta": "",
        "provincia": "SORIA",
        "municipio": "24115",
        "codigoPostal": "24400",
        "localidad": "SORIA"
      },
      "telefono": "936456123",
      "email": "",
      "idiomaComunicacion": "option1"
    },
    {
      "id": "145101",
      "nif": "10024113T",
      "nombre": "GARCIA RODRIGUEZ BELARMINO",
      "sexo": "H",
      "tipoVia": "CL",
      "nombreVia": "FRANCISCO NAVACERRADA",
      "numeroVia": "0040",
      "municipio": "28079",
      "codigoPostal": "28028",
      "fechaNacimiento": "6/13/76"
    },
    {
      "id": "145102",
      "nif": "10024128S",
      "nombre": "MANUELA MENDEZ GONZALEZ",
      "sexo": "H",
      "tipoVia": "CL",
      "nombreVia": "SAN ESTEBAN",
      "numeroVia": "0069",
      "municipio": "24057",
      "codigoPostal": "24398",
      "fechaNacimiento": "6/1/78"
    },
    {
      "id": "145103",
      "nif": "10024155L",
      "nombre": "MARQUES GARCIA REGINO",
      "sexo": "H",
      "tipoVia": "CL",
      "nombreVia": "AVDA DE ESPA\\A 24",
      "numeroVia": "S/N",
      "municipio": "24115",
      "codigoPostal": "24400",
      "fechaNacimiento": "10/13/80"
    }
  ],
  "menu": [
    {
      "perfil": "usuario"
    },
    {
      "displayName": "Login",
      "iconName": "face",
      "route": "/login"
    },
    {
      "displayName": "Ciudadano",
      "iconName": "description",
      "children": [
        {
          "displayName": "Alta",
          "iconName": "add_circle_outline",
          "route": "/nuevociudadano"
        },
        {
          "displayName": "Consulta",
          "iconName": "search",
          "route": "/buscaciudadano"
        }
      ]
    },
    {
      "displayName": "Salir",
      "iconName": "exit_to_app",
      "route": "/logout"
    }
  ]
}